{
    "content": [
      {
        "id": 16,
        "name": "Le Thi Thi",
        "dob": "2021-10-06T00:00:00.000+00:00",
        "sex": 2,
        "numberInsurance": "1511121655",
        "address": "Quan 7",
        "phone": "0269514873",
        "type": 1,
        "empTrainingAssoc": [
          
        ]
      },
      {
        "id": 25,
        "name": "Nguyen Xuan Dai",
        "dob": "2022-02-14T00:00:00.000+00:00",
        "sex": 0,
        "numberInsurance": "1234567812",
        "address": "Ha Noi",
        "phone": "0123456789",
        "type": 1,
        "empTrainingAssoc": [
          
        ]
      },
      {
        "id": 26,
        "name": "Nguyen Van Du",
        "dob": "1999-11-11T00:00:00.000+00:00",
        "sex": 0,
        "numberInsurance": "123456413124",
        "address": "9th Moba Street",
        "phone": "029514873",
        "type": 1,
        "empTrainingAssoc": [
          
        ]
      },
      {
        "id": 27,
        "name": "Nguyen Van Vu",
        "dob": "1999-05-15T07:00:00.000+00:00",
        "sex": 1,
        "numberInsurance": "123698740",
        "address": "2nd Krum Street",
        "phone": "0987456321",
        "type": 1,
        "empTrainingAssoc": [
          
        ]
      },
      {
        "id": 28,
        "name": "Nguyen Van Vi",
        "dob": "1998-05-15T07:00:00.000+00:00",
        "sex": 1,
        "numberInsurance": "123698740",
        "address": "3nd Krum Street",
        "phone": "0987562561",
        "type": 2,
        "empTrainingAssoc": [
          
        ]
      }
    ],
    "pageable": {
      "sort": {
        "sorted": true,
        "unsorted": false,
        "empty": false
      },
      "pageNumber": 0,
      "pageSize": 5,
      "offset": 0,
      "unpaged": false,
      "paged": true
    },
    "totalPages": 38,
    "totalElements": 188,
    "last": false,
    "sort": {
      "sorted": true,
      "unsorted": false,
      "empty": false
    },
    "numberOfElements": 5,
    "first": true,
    "size": 5,
    "number": 0,
    "empty": false
  }